\contentsline {section}{\numberline {1}}{1}{section.1}
\contentsline {subsection}{\numberline {1.1}}{1}{subsection.1.1}
\contentsline {subsubsection}{\numberline {1.1.1}Angle Definition}{1}{subsubsection.1.1.1}
\contentsline {subsubsection}{\numberline {1.1.2}Positive and Negative Angles}{1}{subsubsection.1.1.2}
\contentsline {subsubsection}{\numberline {1.1.3}Types of Angles}{2}{subsubsection.1.1.3}
\contentsline {subsubsection}{\numberline {1.1.4}Supplementary and Complementary Angles}{2}{subsubsection.1.1.4}
\contentsline {subsubsection}{\numberline {1.1.5}Types of Triangles}{2}{subsubsection.1.1.5}
\contentsline {subsubsection}{\numberline {1.1.6}Special Right Triangles}{2}{subsubsection.1.1.6}
\contentsline {subsubsection}{\numberline {1.1.7}Pythagorean Theorem}{2}{subsubsection.1.1.7}
\contentsline {subsection}{\numberline {1.2}}{2}{subsection.1.2}
\contentsline {subsubsection}{\numberline {1.2.1}Standard Position}{2}{subsubsection.1.2.1}
\contentsline {subsubsection}{\numberline {1.2.2}Coterminal Angles}{3}{subsubsection.1.2.2}
\contentsline {subsection}{\numberline {1.3}}{3}{subsection.1.3}
\contentsline {subsubsection}{\numberline {1.3.1}6 Trigonometric Functions}{3}{subsubsection.1.3.1}
\contentsline {subsection}{\numberline {1.4}}{3}{subsection.1.4}
\contentsline {subsubsection}{\numberline {1.4.1}Reciprocal Identities}{3}{subsubsection.1.4.1}
\contentsline {subsubsection}{\numberline {1.4.2}Ratio Identities}{3}{subsubsection.1.4.2}
\contentsline {subsubsection}{\numberline {1.4.3}Pythagorean Identities}{3}{subsubsection.1.4.3}
\contentsline {section}{\numberline {2}}{4}{section.2}
\contentsline {subsection}{\numberline {2.1}}{4}{subsection.2.1}
\contentsline {subsubsection}{\numberline {2.1.1}Right Triangle Definitions}{4}{subsubsection.2.1.1}
\contentsline {section}{\numberline {3}Radians}{4}{section.3}
\contentsline {section}{\numberline {4}Amplitude, Reflection, and Period}{6}{section.4}
\contentsline {section}{\numberline {5}Identities and Formulas}{7}{section.5}
\contentsline {section}{Index}{8}{section*.3}
